{
   "metadata": {
      "edgeProperties": [],
      "edgeLabels": [],
      "edgeCount": 0,
      "nodeCount": 3,
      "nodeTypes": [{
         "extraData": {"NodeStyleSettings": "<NodeStyleSettings xmlns:i=\"http://www.w3.org/2001/XMLSchema-instance\" xmlns=\"http://schemas.datacontract.org/2004/07/PBBI.Spectrum.GraphVisualization.Modules.GraphDecorator.Models\"><BorderThickness>1<\/BorderThickness><FillColor xmlns:d2p1=\"http://schemas.datacontract.org/2004/07/System.Windows.Media\"><d2p1:A>255<\/d2p1:A><d2p1:B>162<\/d2p1:B><d2p1:G>110<\/d2p1:G><d2p1:R>68<\/d2p1:R><\/FillColor><HasShadow>false<\/HasShadow><Height>32<\/Height><ImageStyle><\/ImageStyle><ImageUriProperty><\/ImageUriProperty><ImageUriString><\/ImageUriString><LabelColor xmlns:d2p1=\"http://schemas.datacontract.org/2004/07/System.Windows.Media\"><d2p1:A>255<\/d2p1:A><d2p1:B>0<\/d2p1:B><d2p1:G>0<\/d2p1:G><d2p1:R>0<\/d2p1:R><\/LabelColor><LabelFontFamily>Arial<\/LabelFontFamily><LabelFontSize>10<\/LabelFontSize><LabelLocation>Outside<\/LabelLocation><LabelPosition>South<\/LabelPosition><LabelPropertyName>_stp_label<\/LabelPropertyName><LabelVisible>true<\/LabelVisible><MaintainAspectRatio>true<\/MaintainAspectRatio><MaxLabelWidth>100<\/MaxLabelWidth><PenColor xmlns:d2p1=\"http://schemas.datacontract.org/2004/07/System.Windows.Media\"><d2p1:A>255<\/d2p1:A><d2p1:B>0<\/d2p1:B><d2p1:G>0<\/d2p1:G><d2p1:R>0<\/d2p1:R><\/PenColor><ShapeNodeStyle>roundShape<\/ShapeNodeStyle><Style>Shape<\/Style><TextTrimming>None<\/TextTrimming><TextWrapping>Wrap<\/TextWrapping><Width>32<\/Width><\/NodeStyleSettings>"},
         "count": 3,
         "type": "Object",
         "properties": [
            {
               "name": "TECHInternalPID",
               "count": 0
            },
            {
               "name": "lockType",
               "count": 3
            },
            {
               "name": "type",
               "count": 0
            },
            {
               "name": "objectID",
               "count": 3
            }
         ],
         "virtualProperties": null
      }],
      "linkedLogicalModelName": null,
      "nodeProperties": [
         {
            "indexType": "NONE",
            "name": "TECHInternalPID",
            "count": 0,
            "type": "string"
         },
         {
            "indexType": "EXACT",
            "name": "_stp_type",
            "count": 0,
            "type": "string"
         },
         {
            "indexType": "EXACT",
            "name": "_stp_label",
            "count": 0,
            "type": "string"
         },
         {
            "indexType": "NONE",
            "name": "lockType",
            "count": 3,
            "type": "string"
         },
         {
            "indexType": "NONE",
            "name": "type",
            "count": 0,
            "type": "string"
         },
         {
            "indexType": "NONE",
            "name": "objectID",
            "count": 3,
            "type": "string"
         },
         {
            "indexType": "EXACT",
            "name": "_stp_id",
            "count": 0,
            "type": "string"
         }
      ]
   },
   "monitorMap": {},
   "namedQueryEntityMap": {}
}